^C:\USERS\LAB\SYNCPLICITY FOLDERS\BIOROBOTICS (SEOK CHANG RYU)\ABHISHEK KOTTALA\NEEDLETRACKINGPROJECT\NEEDLETRACKINGPROJECT\NEEDLETRACKINGPROJECT\DEBUG\.NETFRAMEWORK,VERSION=V4.6.1.ASSEMBLYATTRIBUTES.OBJ|C:\USERS\LAB\SYNCPLICITY FOLDERS\BIOROBOTICS (SEOK CHANG RYU)\ABHISHEK KOTTALA\NEEDLETRACKINGPROJECT\NEEDLETRACKINGPROJECT\NEEDLETRACKINGPROJECT\DEBUG\IMAGEFUNCTION.OBJ|C:\USERS\LAB\SYNCPLICITY FOLDERS\BIOROBOTICS (SEOK CHANG RYU)\ABHISHEK KOTTALA\NEEDLETRACKINGPROJECT\NEEDLETRACKINGPROJECT\NEEDLETRACKINGPROJECT\DEBUG\MAINFORM.OBJ|C:\USERS\LAB\SYNCPLICITY FOLDERS\BIOROBOTICS (SEOK CHANG RYU)\ABHISHEK KOTTALA\NEEDLETRACKINGPROJECT\NEEDLETRACKINGPROJECT\NEEDLETRACKINGPROJECT\DEBUG\MIGHTYZAPHANDLER.OBJ|C:\USERS\LAB\SYNCPLICITY FOLDERS\BIOROBOTICS (SEOK CHANG RYU)\ABHISHEK KOTTALA\NEEDLETRACKINGPROJECT\NEEDLETRACKINGPROJECT\NEEDLETRACKINGPROJECT\DEBUG\NOVINTHANDLER.OBJ|C:\USERS\LAB\SYNCPLICITY FOLDERS\BIOROBOTICS (SEOK CHANG RYU)\ABHISHEK KOTTALA\NEEDLETRACKINGPROJECT\NEEDLETRACKINGPROJECT\NEEDLETRACKINGPROJECT\DEBUG\PATHGENERATOR.OBJ|C:\USERS\LAB\SYNCPLICITY FOLDERS\BIOROBOTICS (SEOK CHANG RYU)\ABHISHEK KOTTALA\NEEDLETRACKINGPROJECT\NEEDLETRACKINGPROJECT\NEEDLETRACKINGPROJECT\DEBUG\PHIDGETHANDLER.OBJ|C:\USERS\LAB\SYNCPLICITY FOLDERS\BIOROBOTICS (SEOK CHANG RYU)\ABHISHEK KOTTALA\NEEDLETRACKINGPROJECT\NEEDLETRACKINGPROJECT\NEEDLETRACKINGPROJECT\DEBUG\TRACKEDOBJECT.OBJ|C:\USERS\LAB\SYNCPLICITY FOLDERS\BIOROBOTICS (SEOK CHANG RYU)\ABHISHEK KOTTALA\NEEDLETRACKINGPROJECT\NEEDLETRACKINGPROJECT\NEEDLETRACKINGPROJECT\DEBUG\VISIONHANDLER.OBJ
C:\USERS\LAB\SYNCPLICITY FOLDERS\BIOROBOTICS (SEOK CHANG RYU)\ABHISHEK KOTTALA\NEEDLETRACKINGPROJECT\NEEDLETRACKINGPROJECT\DEBUG\NEEDLETRACKINGPROJECT.EXE
C:\USERS\LAB\SYNCPLICITY FOLDERS\BIOROBOTICS (SEOK CHANG RYU)\ABHISHEK KOTTALA\NEEDLETRACKINGPROJECT\NEEDLETRACKINGPROJECT\DEBUG\NEEDLETRACKINGPROJECT.PDB
