^C:\USERS\ROHITHKARTHIKEYAN\SYNCPLICITY FOLDERS\BIOROBOTICS (SEOK CHANG RYU)\ROHITH KARTHIKEYAN\CODE\STEERINGMANIPULATORCONTROL\STEERING_SYSTEM_INTEGRATED_V3\STEERING_SYSTEM_1\X64\DEBUG\STDAFX.OBJ|C:\USERS\ROHITHKARTHIKEYAN\SYNCPLICITY FOLDERS\BIOROBOTICS (SEOK CHANG RYU)\ROHITH KARTHIKEYAN\CODE\STEERINGMANIPULATORCONTROL\STEERING_SYSTEM_INTEGRATED_V3\STEERING_SYSTEM_1\X64\DEBUG\STEERING_SYSTEM_1.OBJ
C:\USERS\ROHITHKARTHIKEYAN\SYNCPLICITY FOLDERS\BIOROBOTICS (SEOK CHANG RYU)\ROHITH KARTHIKEYAN\CODE\STEERINGMANIPULATORCONTROL\STEERING_SYSTEM_INTEGRATED_V3\STEERING_SYSTEM_1\X64\DEBUG\STEERING_SYSTEM_1.ILK
C:\USERS\ROHITHKARTHIKEYAN\SYNCPLICITY FOLDERS\BIOROBOTICS (SEOK CHANG RYU)\ROHITH KARTHIKEYAN\CODE\STEERINGMANIPULATORCONTROL\STEERING_SYSTEM_INTEGRATED_V3\STEERING_SYSTEM_1\X64\DEBUG\STEERING_SYSTEM_1.EXE
C:\USERS\ROHITHKARTHIKEYAN\SYNCPLICITY FOLDERS\BIOROBOTICS (SEOK CHANG RYU)\ROHITH KARTHIKEYAN\CODE\STEERINGMANIPULATORCONTROL\STEERING_SYSTEM_INTEGRATED_V3\STEERING_SYSTEM_1\X64\DEBUG\STEERING_SYSTEM_1.PDB
^C:\USERS\ROHITHKARTHIKEYAN\SYNCPLICITY FOLDERS\BIOROBOTICS (SEOK CHANG RYU)\ROHITH KARTHIKEYAN\CODE\STEERINGMANIPULATORCONTROL\STEERING_SYSTEM_INTEGRATED_V6_4SERVO\STEERING_SYSTEM_1\X64\DEBUG\STDAFX.OBJ|C:\USERS\ROHITHKARTHIKEYAN\SYNCPLICITY FOLDERS\BIOROBOTICS (SEOK CHANG RYU)\ROHITH KARTHIKEYAN\CODE\STEERINGMANIPULATORCONTROL\STEERING_SYSTEM_INTEGRATED_V6_4SERVO\STEERING_SYSTEM_1\X64\DEBUG\STEERING_SYSTEM_1.OBJ
C:\USERS\ROHITHKARTHIKEYAN\SYNCPLICITY FOLDERS\BIOROBOTICS (SEOK CHANG RYU)\ROHITH KARTHIKEYAN\CODE\STEERINGMANIPULATORCONTROL\STEERING_SYSTEM_INTEGRATED_V6_4SERVO\STEERING_SYSTEM_1\X64\DEBUG\STEERING_SYSTEM_1.ILK
C:\USERS\ROHITHKARTHIKEYAN\SYNCPLICITY FOLDERS\BIOROBOTICS (SEOK CHANG RYU)\ROHITH KARTHIKEYAN\CODE\STEERINGMANIPULATORCONTROL\STEERING_SYSTEM_INTEGRATED_V6_4SERVO\STEERING_SYSTEM_1\X64\DEBUG\STEERING_SYSTEM_1.EXE
C:\USERS\ROHITHKARTHIKEYAN\SYNCPLICITY FOLDERS\BIOROBOTICS (SEOK CHANG RYU)\ROHITH KARTHIKEYAN\CODE\STEERINGMANIPULATORCONTROL\STEERING_SYSTEM_INTEGRATED_V6_4SERVO\STEERING_SYSTEM_1\X64\DEBUG\STEERING_SYSTEM_1.PDB
^C:\USERS\ROHITHKARTHIKEYAN\SYNCPLICITY FOLDERS\BIOROBOTICS (SEOK CHANG RYU)\ROHITH KARTHIKEYAN\CODE\STEERINGMANIPULATORCONTROL\STEERING_SYSTEM_INTEGRATED_V9_3P\STEERING_SYSTEM_1\X64\DEBUG\STDAFX.OBJ|C:\USERS\ROHITHKARTHIKEYAN\SYNCPLICITY FOLDERS\BIOROBOTICS (SEOK CHANG RYU)\ROHITH KARTHIKEYAN\CODE\STEERINGMANIPULATORCONTROL\STEERING_SYSTEM_INTEGRATED_V9_3P\STEERING_SYSTEM_1\X64\DEBUG\STEERING_SYSTEM_1.OBJ
C:\USERS\ROHITHKARTHIKEYAN\SYNCPLICITY FOLDERS\BIOROBOTICS (SEOK CHANG RYU)\ROHITH KARTHIKEYAN\CODE\STEERINGMANIPULATORCONTROL\STEERING_SYSTEM_INTEGRATED_V9_3P\STEERING_SYSTEM_1\X64\DEBUG\STEERING_SYSTEM_1.ILK
C:\USERS\ROHITHKARTHIKEYAN\SYNCPLICITY FOLDERS\BIOROBOTICS (SEOK CHANG RYU)\ROHITH KARTHIKEYAN\CODE\STEERINGMANIPULATORCONTROL\STEERING_SYSTEM_INTEGRATED_V9_3P\STEERING_SYSTEM_1\X64\DEBUG\STEERING_SYSTEM_1.EXE
C:\USERS\ROHITHKARTHIKEYAN\SYNCPLICITY FOLDERS\BIOROBOTICS (SEOK CHANG RYU)\ROHITH KARTHIKEYAN\CODE\STEERINGMANIPULATORCONTROL\STEERING_SYSTEM_INTEGRATED_V9_3P\STEERING_SYSTEM_1\X64\DEBUG\STEERING_SYSTEM_1.PDB
^C:\USERS\ROHITHKARTHIKEYAN\SYNCPLICITY FOLDERS\BIOROBOTICS (SEOK CHANG RYU)\ROHITH KARTHIKEYAN\CODE\STEERINGMANIPULATORCONTROL\STEERING_SYSTEM_INTEGRATED_V11\STEERING_SYSTEM_1\X64\DEBUG\STDAFX.OBJ|C:\USERS\ROHITHKARTHIKEYAN\SYNCPLICITY FOLDERS\BIOROBOTICS (SEOK CHANG RYU)\ROHITH KARTHIKEYAN\CODE\STEERINGMANIPULATORCONTROL\STEERING_SYSTEM_INTEGRATED_V11\STEERING_SYSTEM_1\X64\DEBUG\STEERING_SYSTEM_1.OBJ
C:\USERS\ROHITHKARTHIKEYAN\SYNCPLICITY FOLDERS\BIOROBOTICS (SEOK CHANG RYU)\ROHITH KARTHIKEYAN\CODE\STEERINGMANIPULATORCONTROL\STEERING_SYSTEM_INTEGRATED_V11\STEERING_SYSTEM_1\X64\DEBUG\STEERING_SYSTEM_1.ILK
C:\USERS\ROHITHKARTHIKEYAN\SYNCPLICITY FOLDERS\BIOROBOTICS (SEOK CHANG RYU)\ROHITH KARTHIKEYAN\CODE\STEERINGMANIPULATORCONTROL\STEERING_SYSTEM_INTEGRATED_V11\STEERING_SYSTEM_1\X64\DEBUG\STEERING_SYSTEM_1.EXE
C:\USERS\ROHITHKARTHIKEYAN\SYNCPLICITY FOLDERS\BIOROBOTICS (SEOK CHANG RYU)\ROHITH KARTHIKEYAN\CODE\STEERINGMANIPULATORCONTROL\STEERING_SYSTEM_INTEGRATED_V11\STEERING_SYSTEM_1\X64\DEBUG\STEERING_SYSTEM_1.PDB
